BayesFacialRecognition
…
# make tibble of our real data
(sim_exp <- tibble(subj = subj,
                   item = trial_number,
                   complexity = complexity,
                   w_ans = ans)) 

## # A tibble: 3,520 × 4
##     subj  item complexity w_ans
##    <int> <int>      <dbl> <dbl>
##  1     1     1     -0.445     1
##  2     1     2     -0.478     1
##  3     1     3     -0.390     2
##  4     1     4     -0.344     1
##  5     1     5     -0.264     1
##  6     1     6     -0.187     1
##  7     1     7     -0.388     1
##  8     1     8     -0.462     1
##  9     1     9     -0.430     4
## 10     1    10     -0.5       1
## # ℹ 3,510 more rows
…
# HIERARCHICAL Stan Model --------------------------------------------------

N_item <- 20 # number trials per subject
N_subj <- 176 # number of subjects
N_obs <- N_item * N_subj 

# make tibble of our real data
(exp <- tibble(subj = data$participant,
               item = data$trial_number,
               complexity = data$C_TotalPageViews,
               w_ans = data$outcome)) 

## # A tibble: 3,520 × 4
##     subj  item complexity w_ans
##    <int> <int>      <dbl> <int>
##  1     1     1     -0.486     3
##  2     1     2     -0.340     2
##  3     1     3     -0.327     2
##  4     1     4     -0.446     2
##  5     1     5     -0.460     2
##  6     1     6     -0.455     2
##  7     1     7     -0.492     1
##  8     1     8     -0.436     2
##  9     1     9     -0.468     2
## 10     1    10     -0.463     1
## # ℹ 3,510 more rows
…
